{
    "corpus": [
        {
            "name": "client",
            "words": [
                "account",
                "company",
                "corporation"
            ]
        },
        {
            "name": "existing",
            "words": [
                "exists"
            ]
        },
        {
            "name": "structure",
            "words": [
                "tree view"
            ]
        },
        {
            "name": "position",
            "words": [
                "job title"
            ]
        },
        {
            "name": "contact",
            "words": [
                "individual",
                "employee"
            ]
        },
        {
            "name": "information",
            "words": [
                "details",
                "info"
            ]
        },
        {
            "name": "search",
            "words": [
                "look up",
                "research"
            ]
        }
    ],
    "qnas": [
        {
            "name": "According to your level of visibility, there are interactions that you can't access. In that case, a lock icon will appear on these activities. You may choose not to see these activities by switching off the Show restricted button.",
            "questions": [
                "Why there are interactions that I cant access?",
                "Can't access an activity's details",
                "Activities shown in grey",
                "Activity locked",
                "What is \"show restricted\"",
                "Not to see confidential activities",
                "Access activities in grey"
            ]
        },
        {
            "name": "By changing the scope from Myself to My team, you will be able to see your team's contacts or accounts. If you support or in charge of multiple teams, you may choose to view one of them by clicking on Change team and click on the team that you want to check.",
            "questions": [
                "What is the difference between the scope Myself and My team?",
                "How can I see my team's account?",
                "See accounts of different teams",
                "See clients in my team's portfolio",
                "I would like to see other's clients",
                "How can I see my team's contacts?",
                "See contacts of different teams",
                "See ccontacts in my team's portfolio",
                "I would like to see other's contacts"
            ]
        },
        {
            "name": "Click on the ellipsis icon beside the account name appearing in your account list. ",
            "questions": [
                "How can I see the accounts commercial structure?",
                "please show client commercial structure",
                "I want to acess the account tree view "
            ]
        },
        {
            "name": "Contact's information can be modified through the Edit contact ",
            "questions": [
                "How to edit a contact",
                "Update contact's information",
                "Modify contact's details",
                "update a contact",
                "I want to modify a contact's information"
            ]
        },
        {
            "name": "First, click on the client to which you want to add a contact. You may then find there is an Other actions button appearing on the right pane. Click to expand it, then choose to create new contact. Edit the contact information and save.",
            "questions": [
                "How to create a new contact to an existing account?",
                "I'd like to to create a new contact to an existing account",
                "adding a new contact to an existing account"
            ]
        },
        {
            "name": "If you need to add a contact to your portfolio, enter in the search box the name of the contact and click on Search a contact. Choose the corresponding contact and click on Add to my portfolio that appears in the right pane.",
            "questions": [
                "How to add an existing contact ?",
                "I would like to add an existing contact",
                "Adding an existing account",
                "I would like to add a new contact",
                "new contact"
            ]
        },
        {
            "name": "If you need to add an existing account to your portfolio, enter in the search box the name of the account and click on Search an account. Choose the corresponding client and click on Add to my portfolio. You will then see there's a notification that requests your role regarding this account. Choose your role and click on OK.You may attach yourself to any account,  but some roles in the client team require validation (example: PCRU banker or Mark Champion).",
            "questions": [
                "How to add an account  ?",
                "I would like to add an account",
                "Adding an account",
                "add an account"
            ]
        },
        {
            "name": "If you need to look up a particular client or contact, you may directly enter the name in the search box. If the account or contact you are searching is in your portfolio, the result will appear under the search box. If not, click on either search a contact or Search an account. to expand the search to the whole iC database.",
            "questions": [
                " How to search a contact",
                "How to find a client",
                "How can I look up a client",
                "I want to find an account",
                "See a particular client"
            ]
        },
        {
            "name": "In  Portfolio, you can see all your contacts and accounts. It is possible to choose to view either your contacts or your accounts by switching the view mode between contacts and accounts.",
            "questions": [
                "How to see my contacts",
                "How to see my accounts",
                "I want to see all my clients",
                "Show my list of clients",
                "Show my list of contacts",
                "I need to see all my contacts"
            ]
        },
        {
            "name": "It is absolutely possible to add a client to your sales colleague's portfolio by using the navigate as function. You may find on the top of the page a Navigate as function button. Click on it and enter the name of the person on behalf of who you would like to add the client.",
            "questions": [
                "Add clients to someone's portfolio",
                "Add account on behalf of",
                "Add people to a client",
                "Add sales to a client",
                "Assign someone to an account"
            ]
        },
        {
            "name": "Once you click on a client or contact on your list, on the right side of the screen you will be able to see the information by clicking on account info (contact info). Then you may find the account's address, related bankers, RM, map and LinkedIn profile.",
            "questions": [
                "How can I access a client or contacts information? (including  adress, BDR ID etc.)",
                "I would like to access a client information",
                "I would like to access a client details",
                "show client information",
                "show client details",
                "show client BDR",
                "see client ID",
                "see client details"
            ]
        },
        {
            "name": "The view mode should first be switched to contacts before searching for contacts, then enter the contact's name in the search bar.If there's no corresponding result, click on Search a contact to expand the search to the whole iC database.",
            "questions": [
                "I can't see my contacts",
                "See contacts in my portfolio",
                "Look up a particupar contact",
                "Search a contact in my portfolio"
            ]
        },
        {
            "name": "To create a prospect, you need first to enter the prospect name in the search box, then click on Search an account to look up the name in the iC database. Once confirmed that the prospect doesn't exist in the database, you may then click on Create a prospect that appears on the top of the page.The following step is to validate the email by entering the contact's email address and then click on Check.1. If the contact exists in the database, please read and modify the information of your existing contact, and then click on Create related prospect. Edit the prospect's information such as the name, the parent, typology, etc. Click on Save to save all information.2. If the contact does not currently exist, edit the contact's information by entering all mandatory fields and then click on Create related prospect. Edit the prospect's information and save.",
            "questions": [
                "How to add a prospect?",
                "How to create a prospect",
                "I want to register a prospect",
                "I need to add a prospect",
                "How can add a company which is not yet client"
            ]
        },
        {
            "name": "To remove a contact or an account from your portfolio, search the contact or account that you want to remove and click on it. Click on Other actions, then Remove from portfolio.",
            "questions": [
                "Delete a contact",
                "I want to remove a contact",
                "I need to remove an account",
                "How to delete an account",
                "I would like to remove a client",
                "Delete a client"
            ]
        },
        {
            "name": "When theres a request of link to account, whats the procedure? Will a notification be sent to the coverage team?",
            "questions": [
                "What are the next steps if I add an account ",
                "What happens if I'm attached to a client",
                "Who will be informed when I add an account",
                "To whom the request is sent"
            ]
        },
        {
            "name": "When you can\u2019t access contact\u2019s information, it can be a confidential contact, in which case you will need to contact the contact\u2019s owner for access, you may follow the steps below:1. Search the contact in iC Anywhere 2. Click on request contact in the right paneThe contact\u2019s owner will receive a notification so that he may give access to this contact.",
            "questions": [
                "Why can\u2019t I access some contacts\u2019 information? And what are the procedures to follow?",
                "Why I can't see a contact's information",
                "Contact's profile not accessible",
                "Can't see a contact's details",
                "Can't click in a contact",
                "What is a confidential contact"
            ]
        },
        {
            "name": "You may notice there is an Ellipsis icon beside the contact name appearing in your contact list. Click on it, and then click on OrgChart per entity, you will find out how your contact is positioned in his company.",
            "questions": [
                "Where can I see a contacts position in his company?",
                "How the contact is positionned",
                "How to access the organizational chart"
            ]
        },
        {
            "name": "You may notice there's an ellipsis icon beside the account name appearing in your account list. And then click on all contact so that you will have a full list of contacts of the client company registered in iC.",
            "questions": [
                "Instead of only seeing my contacts in the client company,is there a way to see other contacts from this company?",
                "See all contacts of a company",
                "View all contacts of a company",
                "Other contacts of an account",
                "See account's contacts"
            ]
        },
        {
            "name": "You may want to create a note on a client that is not in your portfolio, click on New note and you will see a notification asking you whether you want to add this account to your portfolio. If you do not want to add this account to your portfolio, click on No. The new note edit dialogue will then appear on the screen, you may then edit the content and save.",
            "questions": [
                "Is it possible to add a new note without adding the client to my portfolio?",
                "add note to  an account beyond my portfolio",
                "Should I add an account to create a note?"
            ]
        }
    ]
}